[
    {
        "title": "THE RUBIN REPORT",
        "description": "Get exclusive content. Interact with Dave. Verified Nobody. My tribe is tribeless. Captain of the Fence Riding Team. Fiddling while Rome burns. Find another hero. ",
        "img": "Slide1.png",
        "special": "true"
    },
    {
        "title": "NGO-GO ZONE",
        "description": "Get exclusive content. Interact with Andy. Verified Nobody. My tribe is tribeless. Captain of the Fence Riding Team. Fiddling while Rome burns. Find another hero. ",
        "img": "Slide2.png"
    },
    {
        "title": "Bridget Phetasy",
        "description": "Get exclusive content. Interact with Bridget. Verified Nobody. My tribe is tribeless. Captain of the Fence Riding Team. Fiddling while Rome burns. Find another hero. ",
        "img": "Slide3.png"
    },
    {
        "title": "Micheal Malice",
        "description": "Get exclusive content. Interact with Micheal. Verified Nobody. My tribe is tribeless. Captain of the Fence Riding Team. Fiddling while Rome burns. Find another hero. ",
        "img": "Slide4.png"
    },
    {
        "title": "Convention of States",
        "description": "Get exclusive content. Interact with Mark. Verified Nobody. My tribe is tribeless. Captain of the Fence Riding Team. Fiddling while Rome burns. Find another hero. ",
        "img": "Slide5.png"
    }
]